…
    ## Warning: Unknown or uninitialised column: 'c'.

    ## NULL

-   The print method for tibbles is more user friendly.

``` r
data(who)

who # this is a tibble
```

    ## # A tibble: 7,240 x 60
    ##    country     iso2  iso3   year new_sp_m014 new_sp_m1524 new_sp_m2534
    ##    <chr>       <chr> <chr> <int>       <int>        <int>        <int>
    ##  1 Afghanistan AF    AFG    1980          NA           NA           NA
    ##  2 Afghanistan AF    AFG    1981          NA           NA           NA
    ##  3 Afghanistan AF    AFG    1982          NA           NA           NA
    ##  4 Afghanistan AF    AFG    1983          NA           NA           NA
    ##  5 Afghanistan AF    AFG    1984          NA           NA           NA
    ##  6 Afghanistan AF    AFG    1985          NA           NA           NA
    ##  7 Afghanistan AF    AFG    1986          NA           NA           NA
    ##  8 Afghanistan AF    AFG    1987          NA           NA           NA
    ##  9 Afghanistan AF    AFG    1988          NA           NA           NA
    ## 10 Afghanistan AF    AFG    1989          NA           NA           NA
    ## # ... with 7,230 more rows, and 53 more variables: new_sp_m3544 <int>,
    ## #   new_sp_m4554 <int>, new_sp_m5564 <int>, new_sp_m65 <int>,
    ## #   new_sp_f014 <int>, new_sp_f1524 <int>, new_sp_f2534 <int>,
    ## #   new_sp_f3544 <int>, new_sp_f4554 <int>, new_sp_f5564 <int>,
    ## #   new_sp_f65 <int>, new_sn_m014 <int>, new_sn_m1524 <int>,
    ## #   new_sn_m2534 <int>, new_sn_m3544 <int>, new_sn_m4554 <int>,
    ## #   new_sn_m5564 <int>, new_sn_m65 <int>, new_sn_f014 <int>,
    ## #   new_sn_f1524 <int>, new_sn_f2534 <int>, new_sn_f3544 <int>,
    ## #   new_sn_f4554 <int>, new_sn_f5564 <int>, new_sn_f65 <int>,
…
### Adding/changing variables

You can add and change variables within a tibble using `mutate()`. The syntax is nearly identical to `tibble()` and `data_frame()`, except it requires the tibble you want to edit as input. For example, if we want to add a new variable to our data\_frame, `t2`:

``` r
(t2 <- mutate(t2,
              case = 1:n <= 500))
```

    ## # A tibble: 1,000 x 5
    ##    start               end                 elapsed l     case 
    ##    <dttm>              <dttm>                <dbl> <chr> <lgl>
    ##  1 2018-03-13 12:52:29 2018-04-03 13:45:16   505.  d     TRUE 
    ##  2 2018-03-13 12:25:35 2018-04-11 15:27:53   699.  p     TRUE 
    ##  3 2018-03-13 13:30:33 2018-03-28 03:42:08   350.  f     TRUE 
    ##  4 2018-03-13 03:50:04 2018-03-14 06:55:43    27.1 n     TRUE 
    ##  5 2018-03-13 12:18:49 2018-04-11 08:16:49   692.  q     TRUE 
    ##  6 2018-03-13 19:08:21 2018-03-24 09:20:41   254.  b     TRUE 
    ##  7 2018-03-13 14:10:51 2018-03-21 19:54:57   198.  v     TRUE 
    ##  8 2018-03-13 04:28:05 2018-04-02 07:16:05   483.  f     TRUE 
    ##  9 2018-03-13 20:13:53 2018-03-19 08:19:09   132.  b     TRUE 
    ## 10 2018-03-12 21:48:42 2018-03-17 17:08:11   115.  b     TRUE 
    ## # ... with 990 more rows
### Adding rows

You can add rows to a tibble, and using the `.before` option will allow you to specify where exactly to add the data (default, i.e. if you don't specify `.before`, is to put the new data at the end of the tibble).

``` r
# see our new row on line 2?
(t2 <- t2 %>%
       add_row(start   = now(),
               end     = now() + 1,
               elapsed = 24,
               l       = 'f',
               .before = 2))
```

    ## # A tibble: 1,001 x 5
    ##    start               end                 elapsed l     case 
    ##    <dttm>              <dttm>                <dbl> <chr> <lgl>
    ##  1 2018-03-13 12:52:29 2018-04-03 13:45:16   505.  d     TRUE 
    ##  2 2018-03-13 08:48:45 2018-03-13 08:48:46    24.0 f     NA   
    ##  3 2018-03-13 12:25:35 2018-04-11 15:27:53   699.  p     TRUE 
    ##  4 2018-03-13 13:30:33 2018-03-28 03:42:08   350.  f     TRUE 
    ##  5 2018-03-13 03:50:04 2018-03-14 06:55:43    27.1 n     TRUE 
    ##  6 2018-03-13 12:18:49 2018-04-11 08:16:49   692.  q     TRUE 
    ##  7 2018-03-13 19:08:21 2018-03-24 09:20:41   254.  b     TRUE 
    ##  8 2018-03-13 14:10:51 2018-03-21 19:54:57   198.  v     TRUE 
    ##  9 2018-03-13 04:28:05 2018-04-02 07:16:05   483.  f     TRUE 
    ## 10 2018-03-13 20:13:53 2018-03-19 08:19:09   132.  b     TRUE 
    ## # ... with 991 more rows

### Subsetting

You can use all the same indexing techniques described for data.frames in the [R/RStudio Intro](https://github.com/ravichas/TidyingData/blob/master/0-RStudio-Intro.md), or you can use one of the wrapper functions from the tidyverse:

-   filter(): Select specific rows from the `tibble`

``` r
# pull all rows where elapsed number of hours is less than 72
# looks like there are 102 observations (rows) that fit that criterion
filter(t2, elapsed < 72)
```

    ## # A tibble: 102 x 5
    ##    start               end                 elapsed l     case 
    ##    <dttm>              <dttm>                <dbl> <chr> <lgl>
    ##  1 2018-03-13 08:48:45 2018-03-13 08:48:46   24.0  f     NA   
    ##  2 2018-03-13 03:50:04 2018-03-14 06:55:43   27.1  n     TRUE 
    ##  3 2018-03-13 20:16:57 2018-03-15 22:20:47   50.1  k     TRUE 
    ##  4 2018-03-12 23:56:47 2018-03-13 13:30:29   13.6  p     TRUE 
    ##  5 2018-03-13 15:26:51 2018-03-15 15:13:55   47.8  v     TRUE 
    ##  6 2018-03-13 16:05:36 2018-03-14 20:50:31   28.7  v     TRUE 
    ##  7 2018-03-12 21:16:22 2018-03-15 19:46:33   70.5  e     TRUE 
    ##  8 2018-03-13 03:51:50 2018-03-13 08:52:22    5.01 g     TRUE 
    ##  9 2018-03-13 16:09:14 2018-03-14 20:28:32   28.3  l     TRUE 
    ## 10 2018-03-13 13:01:16 2018-03-14 05:21:15   16.3  n     TRUE 
    ## # ... with 92 more rows

-   select(): Select specific columns from the `tibble`

``` r
# pull all start and end times
select(t2, start, end)
```

    ## # A tibble: 1,001 x 2
    ##    start               end                
    ##    <dttm>              <dttm>             
    ##  1 2018-03-13 12:52:29 2018-04-03 13:45:16
    ##  2 2018-03-13 08:48:45 2018-03-13 08:48:46
    ##  3 2018-03-13 12:25:35 2018-04-11 15:27:53
    ##  4 2018-03-13 13:30:33 2018-03-28 03:42:08
    ##  5 2018-03-13 03:50:04 2018-03-14 06:55:43
    ##  6 2018-03-13 12:18:49 2018-04-11 08:16:49
    ##  7 2018-03-13 19:08:21 2018-03-24 09:20:41
    ##  8 2018-03-13 14:10:51 2018-03-21 19:54:57
    ##  9 2018-03-13 04:28:05 2018-04-02 07:16:05
    ## 10 2018-03-13 20:13:53 2018-03-19 08:19:09
    ## # ... with 991 more rows

``` r
# or drop the l column
select(t2, -l)
```

    ## # A tibble: 1,001 x 4
    ##    start               end                 elapsed case 
    ##    <dttm>              <dttm>                <dbl> <lgl>
    ##  1 2018-03-13 12:52:29 2018-04-03 13:45:16   505.  TRUE 
    ##  2 2018-03-13 08:48:45 2018-03-13 08:48:46    24.0 NA   
    ##  3 2018-03-13 12:25:35 2018-04-11 15:27:53   699.  TRUE 
    ##  4 2018-03-13 13:30:33 2018-03-28 03:42:08   350.  TRUE 
    ##  5 2018-03-13 03:50:04 2018-03-14 06:55:43    27.1 TRUE 
    ##  6 2018-03-13 12:18:49 2018-04-11 08:16:49   692.  TRUE 
    ##  7 2018-03-13 19:08:21 2018-03-24 09:20:41   254.  TRUE 
    ##  8 2018-03-13 14:10:51 2018-03-21 19:54:57   198.  TRUE 
    ##  9 2018-03-13 04:28:05 2018-04-02 07:16:05   483.  TRUE 
    ## 10 2018-03-13 20:13:53 2018-03-19 08:19:09   132.  TRUE 
    ## # ... with 991 more rows

### Printing

You can change the defaults of tibble display with options.

``` r
tmp <- options()
options(tibble.print_min = 6)
t2
```

    ## # A tibble: 1,001 x 5
    ##   start               end                 elapsed l     case 
    ##   <dttm>              <dttm>                <dbl> <chr> <lgl>
    ## 1 2018-03-13 12:52:29 2018-04-03 13:45:16   505.  d     TRUE 
    ## 2 2018-03-13 08:48:45 2018-03-13 08:48:46    24.0 f     NA   
    ## 3 2018-03-13 12:25:35 2018-04-11 15:27:53   699.  p     TRUE 
    ## 4 2018-03-13 13:30:33 2018-03-28 03:42:08   350.  f     TRUE 
    ## 5 2018-03-13 03:50:04 2018-03-14 06:55:43    27.1 n     TRUE 
    ## 6 2018-03-13 12:18:49 2018-04-11 08:16:49   692.  q     TRUE 
    ## # ... with 995 more rows
…
    ## Warning: Duplicated column names deduplicated: '2007-2013' =>
    ## '2007-2013_1' [3]

    ## Parsed with column specification:
    ## cols(
    ##   Country = col_character(),
    ##   `2007-2013` = col_double(),
    ##   `2007-2013_1` = col_double()
    ## )

    ## # A tibble: 32 x 3
    ##   Country                          `2007-2013` `2007-2013_1`
    ##   <chr>                                  <dbl>         <dbl>
    ## 1 Bahamas                                15.9           2.20
    ## 2 Bolivia (Plurinational State of)        4.50          3.50
    ## 3 Brazil                                 11.3          NA   
    ## 4 Burkina Faso                            2.90          2.20
    ## 5 Burundi                                 2.80          1.70
    ## 6 China                                   1.40          1.60
    ## # ... with 26 more rows
…
``` r
# ignore metadata row
read_csv("Data/WHO-2.csv", comment = "#")
```

    ## Parsed with column specification:
    ## cols(
    ##   Country = col_character(),
    ##   CPR_private = col_double(),
    ##   CPR_public = col_double()
    ## )

    ## # A tibble: 32 x 3
    ##   Country                          CPR_private CPR_public
    ##   <chr>                                  <dbl>      <dbl>
    ## 1 Bahamas                                15.9        2.20
    ## 2 Bolivia (Plurinational State of)        4.50       3.50
    ## 3 Brazil                                 11.3       NA   
    ## 4 Burkina Faso                            2.90       2.20
    ## 5 Burundi                                 2.80       1.70
    ## 6 China                                   1.40       1.60
    ## # ... with 26 more rows

``` r
# this results in identical output, but we specify how many lines to skip
read_csv("Data/WHO-2.csv", skip = 1)
```

    ## Parsed with column specification:
    ## cols(
    ##   Country = col_character(),
    ##   CPR_private = col_double(),
    ##   CPR_public = col_double()
    ## )

    ## # A tibble: 32 x 3
    ##   Country                          CPR_private CPR_public
    ##   <chr>                                  <dbl>      <dbl>
    ## 1 Bahamas                                15.9        2.20
    ## 2 Bolivia (Plurinational State of)        4.50       3.50
    ## 3 Brazil                                 11.3       NA   
    ## 4 Burkina Faso                            2.90       2.20
    ## 5 Burundi                                 2.80       1.70
    ## 6 China                                   1.40       1.60
    ## # ... with 26 more rows
…
