…
``` r
(ncsv <- read_csv("Data/WHO-2a.csv"))  # new csv, tibble object
```

    ## Warning: Duplicated column names deduplicated: '2007-2013' =>
    ## '2007-2013_1' [3]

    ## Parsed with column specification:
    ## cols(
    ##   Country = col_character(),
    ##   `2007-2013` = col_double(),
    ##   `2007-2013_1` = col_double()
    ## )

    ## # A tibble: 32 × 3
    ##                             Country `2007-2013` `2007-2013_1`
    ##                               <chr>       <dbl>         <dbl>
    ## 1                           Bahamas        15.9           2.2
    ## 2  Bolivia (Plurinational State of)         4.5           3.5
    ## 3                            Brazil        11.3            NA
    ## 4                      Burkina Faso         2.9           2.2
    ## 5                           Burundi         2.8           1.7
    ## 6                             China         1.4           1.6
    ## 7                          Colombia         3.1            NA
    ## 8                             Congo        11.5           6.5
    ## 9                      Cook Islands         4.5            NA
    ## 10 Democratic Republic of the Congo         2.3           2.0
    ## # ... with 22 more rows
…
``` r
read_csv("Data/WHO-2a.csv", comment = "#")
```

    ## Warning: Duplicated column names deduplicated: '2007-2013' =>
    ## '2007-2013_1' [3]

    ## Parsed with column specification:
    ## cols(
    ##   Country = col_character(),
    ##   `2007-2013` = col_double(),
    ##   `2007-2013_1` = col_double()
    ## )

    ## # A tibble: 32 × 3
    ##                             Country `2007-2013` `2007-2013_1`
    ##                               <chr>       <dbl>         <dbl>
    ## 1                           Bahamas        15.9           2.2
    ## 2  Bolivia (Plurinational State of)         4.5           3.5
    ## 3                            Brazil        11.3            NA
    ## 4                      Burkina Faso         2.9           2.2
    ## 5                           Burundi         2.8           1.7
    ## 6                             China         1.4           1.6
    ## 7                          Colombia         3.1            NA
    ## 8                             Congo        11.5           6.5
    ## 9                      Cook Islands         4.5            NA
    ## 10 Democratic Republic of the Congo         2.3           2.0
    ## # ... with 22 more rows
…
