…
``` r
(ncsv <- read_csv("Data/WHO-2a.csv"))  # new csv, tibble object
```

    ## Warning: Duplicated column names deduplicated: '2007-2013' =>
    ## '2007-2013_1' [3]

    ## Parsed with column specification:
    ## cols(
    ##   Country = col_character(),
    ##   `2007-2013` = col_double(),
    ##   `2007-2013_1` = col_double()
    ## )

    ## # A tibble: 32 × 3
    ##                             Country `2007-2013` `2007-2013_1`
    ##                               <chr>       <dbl>         <dbl>
    ## 1                           Bahamas        15.9           2.2
    ## 2  Bolivia (Plurinational State of)         4.5           3.5
    ## 3                            Brazil        11.3            NA
    ## 4                      Burkina Faso         2.9           2.2
    ## 5                           Burundi         2.8           1.7
    ## 6                             China         1.4           1.6
    ## 7                          Colombia         3.1            NA
    ## 8                             Congo        11.5           6.5
    ## 9                      Cook Islands         4.5            NA
    ## 10 Democratic Republic of the Congo         2.3           2.0
    ## # ... with 22 more rows
…
``` r
read_csv("Data/WHO-2a.csv", comment = "#")
```

    ## Warning: Duplicated column names deduplicated: '2007-2013' =>
    ## '2007-2013_1' [3]

    ## Parsed with column specification:
    ## cols(
    ##   Country = col_character(),
    ##   `2007-2013` = col_double(),
    ##   `2007-2013_1` = col_double()
    ## )

    ## # A tibble: 32 × 3
    ##                             Country `2007-2013` `2007-2013_1`
    ##                               <chr>       <dbl>         <dbl>
    ## 1                           Bahamas        15.9           2.2
    ## 2  Bolivia (Plurinational State of)         4.5           3.5
    ## 3                            Brazil        11.3            NA
    ## 4                      Burkina Faso         2.9           2.2
    ## 5                           Burundi         2.8           1.7
    ## 6                             China         1.4           1.6
    ## 7                          Colombia         3.1            NA
    ## 8                             Congo        11.5           6.5
    ## 9                      Cook Islands         4.5            NA
    ## 10 Democratic Republic of the Congo         2.3           2.0
    ## # ... with 22 more rows
…
``` r
class(cars)
```

    ## [1] "data.frame"

``` r
as_tibble(cars)
```

    ## # A tibble: 50 × 2
    ##    speed  dist
    ##    <dbl> <dbl>
    ## 1      4     2
    ## 2      4    10
    ## 3      7     4
    ## 4      7    22
    ## 5      8    16
    ## 6      9    10
    ## 7     10    18
    ## 8     10    26
    ## 9     10    34
    ## 10    11    17
    ## # ... with 40 more rows
…
``` r
t2 <- tibble(
  a = lubridate::now() + runif(1e3) * 86400,
  b = lubridate::today() + runif(1e3) * 30,
  c = 1:1e3,
  d = runif(1e3),
  e = sample(letters, 1e3, replace = TRUE)
)
```

``` r
t2
```

    ## # A tibble: 1,000 × 5
    ##                      a          b     c         d     e
    ##                 <dttm>     <date> <int>     <dbl> <chr>
    ## 1  2017-03-08 08:53:10 2017-04-02     1 0.3487937     z
    ## 2  2017-03-08 15:55:24 2017-03-21     2 0.9993539     i
    ## 3  2017-03-08 07:21:56 2017-03-09     3 0.2024225     v
    ## 4  2017-03-08 01:32:42 2017-04-05     4 0.6391088     k
    ## 5  2017-03-08 15:43:00 2017-04-05     5 0.1434796     h
    ## 6  2017-03-08 11:39:54 2017-04-01     6 0.9643774     x
    ## 7  2017-03-08 03:50:25 2017-03-08     7 0.4103859     o
    ## 8  2017-03-08 07:23:59 2017-03-18     8 0.3323651     c
    ## 9  2017-03-07 18:57:25 2017-03-23     9 0.3904016     l
    ## 10 2017-03-07 21:31:24 2017-03-20    10 0.8256226     c
    ## # ... with 990 more rows

You can change the defaults of tibble display with options.

``` r
options(tibble.print_max = 10, tibble.print_min = 6)
t2
```

    ## # A tibble: 1,000 × 5
    ##                     a          b     c         d     e
    ##                <dttm>     <date> <int>     <dbl> <chr>
    ## 1 2017-03-08 08:53:10 2017-04-02     1 0.3487937     z
    ## 2 2017-03-08 15:55:24 2017-03-21     2 0.9993539     i
    ## 3 2017-03-08 07:21:56 2017-03-09     3 0.2024225     v
    ## 4 2017-03-08 01:32:42 2017-04-05     4 0.6391088     k
    ## 5 2017-03-08 15:43:00 2017-04-05     5 0.1434796     h
    ## 6 2017-03-08 11:39:54 2017-04-01     6 0.9643774     x
    ## # ... with 994 more rows
…
``` r
getOption("tibble.max_extra_cols")
```

    ## NULL

how to add a row of a tibble in a specific place?

original t2

``` r
t2
```

    ## # A tibble: 1,000 × 5
    ##                     a          b     c         d     e
    ##                <dttm>     <date> <int>     <dbl> <chr>
    ## 1 2017-03-08 08:53:10 2017-04-02     1 0.3487937     z
    ## 2 2017-03-08 15:55:24 2017-03-21     2 0.9993539     i
    ## 3 2017-03-08 07:21:56 2017-03-09     3 0.2024225     v
    ## 4 2017-03-08 01:32:42 2017-04-05     4 0.6391088     k
    ## 5 2017-03-08 15:43:00 2017-04-05     5 0.1434796     h
    ## 6 2017-03-08 11:39:54 2017-04-01     6 0.9643774     x
    ## # ... with 994 more rows
…
    ## [1] "j"

``` r
t2 %>% 
  add_row(
    a = aa, 
    b = bb,
    c = cc,
    d = dd,
    e = ee, .before = 2  # note the dot in ".before = 2"
)
```

    ## # A tibble: 1,001 × 5
    ##                     a          b     c         d     e
    ##                <dttm>     <date> <int>     <dbl> <chr>
    ## 1 2017-03-08 08:53:10 2017-04-02     1 0.3487937     z
    ## 2 2017-03-06 19:00:00 2017-03-07     1 0.7915565     j
    ## 3 2017-03-08 15:55:24 2017-03-21     2 0.9993539     i
    ## 4 2017-03-08 07:21:56 2017-03-09     3 0.2024225     v
    ## 5 2017-03-08 01:32:42 2017-04-05     4 0.6391088     k
    ## 6 2017-03-08 15:43:00 2017-04-05     5 0.1434796     h
    ## # ... with 995 more rows

After the change

``` r
t2
```

    ## # A tibble: 1,000 × 5
    ##                     a          b     c         d     e
    ##                <dttm>     <date> <int>     <dbl> <chr>
    ## 1 2017-03-08 08:53:10 2017-04-02     1 0.3487937     z
    ## 2 2017-03-08 15:55:24 2017-03-21     2 0.9993539     i
    ## 3 2017-03-08 07:21:56 2017-03-09     3 0.2024225     v
    ## 4 2017-03-08 01:32:42 2017-04-05     4 0.6391088     k
    ## 5 2017-03-08 15:43:00 2017-04-05     5 0.1434796     h
    ## 6 2017-03-08 11:39:54 2017-04-01     6 0.9643774     x
    ## # ... with 994 more rows
…
