…
``` r
read_csv("Data/WHO-2a.csv")
```

    ## Warning: Duplicated column names deduplicated: '2007-2013' =>
    ## '2007-2013_1' [3]

    ## Parsed with column specification:
    ## cols(
    ##   Country = col_character(),
    ##   `2007-2013` = col_double(),
    ##   `2007-2013_1` = col_double()
    ## )

    ## # A tibble: 32 × 3
    ##                             Country `2007-2013` `2007-2013_1`
    ##                               <chr>       <dbl>         <dbl>
    ## 1                           Bahamas        15.9           2.2
    ## 2  Bolivia (Plurinational State of)         4.5           3.5
    ## 3                            Brazil        11.3            NA
    ## 4                      Burkina Faso         2.9           2.2
    ## 5                           Burundi         2.8           1.7
    ## 6                             China         1.4           1.6
    ## 7                          Colombia         3.1            NA
    ## 8                             Congo        11.5           6.5
    ## 9                      Cook Islands         4.5            NA
    ## 10 Democratic Republic of the Congo         2.3           2.0
    ## # ... with 22 more rows
…
``` r
read_csv("Data/WHO-2a.csv", comment = "#")
```

    ## Warning: Duplicated column names deduplicated: '2007-2013' =>
    ## '2007-2013_1' [3]

    ## Parsed with column specification:
    ## cols(
    ##   Country = col_character(),
    ##   `2007-2013` = col_double(),
    ##   `2007-2013_1` = col_double()
    ## )

    ## # A tibble: 32 × 3
    ##                             Country `2007-2013` `2007-2013_1`
    ##                               <chr>       <dbl>         <dbl>
    ## 1                           Bahamas        15.9           2.2
    ## 2  Bolivia (Plurinational State of)         4.5           3.5
    ## 3                            Brazil        11.3            NA
    ## 4                      Burkina Faso         2.9           2.2
    ## 5                           Burundi         2.8           1.7
    ## 6                             China         1.4           1.6
    ## 7                          Colombia         3.1            NA
    ## 8                             Congo        11.5           6.5
    ## 9                      Cook Islands         4.5            NA
    ## 10 Democratic Republic of the Congo         2.3           2.0
    ## # ... with 22 more rows
…
    ##  done

Let us find out what class cars object belongs to and how to convert cars data frame into tibbles object. Note that

``` r
class(cars)
```

    ## [1] "data.frame"

``` r
as_tibble(cars)
```

    ## # A tibble: 50 × 2
    ##    speed  dist
    ##    <dbl> <dbl>
    ## 1      4     2
    ## 2      4    10
    ## 3      7     4
    ## 4      7    22
    ## 5      8    16
    ## 6      9    10
    ## 7     10    18
    ## 8     10    26
    ## 9     10    34
    ## 10    11    17
    ## # ... with 40 more rows
…
``` r
t2 <- tibble(
  a = lubridate::now() + runif(1e3) * 86400,
  b = lubridate::today() + runif(1e3) * 30,
  c = 1:1e3,
  d = runif(1e3),
  e = sample(letters, 1e3, replace = TRUE)
)
```

``` r
t2
```

    ## # A tibble: 1,000 × 5
    ##                      a          b     c         d     e
    ##                 <dttm>     <date> <int>     <dbl> <chr>
    ## 1  2017-03-03 17:23:11 2017-03-14     1 0.9480317     u
    ## 2  2017-03-02 23:08:18 2017-03-27     2 0.4494845     x
    ## 3  2017-03-03 11:02:56 2017-03-11     3 0.7540034     f
    ## 4  2017-03-03 08:37:49 2017-03-04     4 0.2413867     k
    ## 5  2017-03-02 20:00:28 2017-03-30     5 0.5782297     u
    ## 6  2017-03-03 12:40:01 2017-03-30     6 0.7826008     u
    ## 7  2017-03-03 16:34:57 2017-03-12     7 0.7473208     k
    ## 8  2017-03-02 21:57:37 2017-03-24     8 0.9530061     k
    ## 9  2017-03-02 23:48:02 2017-03-11     9 0.9061165     r
    ## 10 2017-03-03 14:24:32 2017-03-08    10 0.9233146     c
    ## # ... with 990 more rows

You can change the defaults of tibble display with options.

``` r
options(tibble.print_max = 10, tibble.print_min = 6)
t2
```

    ## # A tibble: 1,000 × 5
    ##                     a          b     c         d     e
    ##                <dttm>     <date> <int>     <dbl> <chr>
    ## 1 2017-03-03 17:23:11 2017-03-14     1 0.9480317     u
    ## 2 2017-03-02 23:08:18 2017-03-27     2 0.4494845     x
    ## 3 2017-03-03 11:02:56 2017-03-11     3 0.7540034     f
    ## 4 2017-03-03 08:37:49 2017-03-04     4 0.2413867     k
    ## 5 2017-03-02 20:00:28 2017-03-30     5 0.5782297     u
    ## 6 2017-03-03 12:40:01 2017-03-30     6 0.7826008     u
    ## # ... with 994 more rows
…
``` r
getOption("tibble.max_extra_cols")
```

    ## NULL

how to add a row of a tibble in a specific place?

original t2

``` r
t2
```

    ## # A tibble: 1,000 × 5
    ##                     a          b     c         d     e
    ##                <dttm>     <date> <int>     <dbl> <chr>
    ## 1 2017-03-03 17:23:11 2017-03-14     1 0.9480317     u
    ## 2 2017-03-02 23:08:18 2017-03-27     2 0.4494845     x
    ## 3 2017-03-03 11:02:56 2017-03-11     3 0.7540034     f
    ## 4 2017-03-03 08:37:49 2017-03-04     4 0.2413867     k
    ## 5 2017-03-02 20:00:28 2017-03-30     5 0.5782297     u
    ## 6 2017-03-03 12:40:01 2017-03-30     6 0.7826008     u
    ## # ... with 994 more rows
…
    ## [1] "l"

``` r
t2 %>% 
  add_row(
    a = aa, 
    b = bb,
    c = cc,
    d = dd,
    e = ee, .before = 2  # note the dot in ".before = 2"
)
```

    ## # A tibble: 1,001 × 5
    ##                     a          b     c         d     e
    ##                <dttm>     <date> <int>     <dbl> <chr>
    ## 1 2017-03-03 17:23:11 2017-03-14     1 0.9480317     u
    ## 2 2017-03-01 19:00:00 2017-03-02     1 0.2178970     l
    ## 3 2017-03-02 23:08:18 2017-03-27     2 0.4494845     x
    ## 4 2017-03-03 11:02:56 2017-03-11     3 0.7540034     f
    ## 5 2017-03-03 08:37:49 2017-03-04     4 0.2413867     k
    ## 6 2017-03-02 20:00:28 2017-03-30     5 0.5782297     u
    ## # ... with 995 more rows

After the change

``` r
t2
```

    ## # A tibble: 1,000 × 5
    ##                     a          b     c         d     e
    ##                <dttm>     <date> <int>     <dbl> <chr>
    ## 1 2017-03-03 17:23:11 2017-03-14     1 0.9480317     u
    ## 2 2017-03-02 23:08:18 2017-03-27     2 0.4494845     x
    ## 3 2017-03-03 11:02:56 2017-03-11     3 0.7540034     f
    ## 4 2017-03-03 08:37:49 2017-03-04     4 0.2413867     k
    ## 5 2017-03-02 20:00:28 2017-03-30     5 0.5782297     u
    ## 6 2017-03-03 12:40:01 2017-03-30     6 0.7826008     u
    ## # ... with 994 more rows
…
